\relax 
\@writefile{toc}{\contentsline {chapter}{\numberline {3}Progress}{18}}
\@writefile{lof}{\addvspace {10\p@ }}
\@writefile{lot}{\addvspace {10\p@ }}
\newlabel{chap:current}{{3}{18}}
\@writefile{toc}{\contentsline {section}{\numberline {3.1}Grid Generation}{18}}
\newlabel{sec:grid}{{3.1}{18}}
\newlabel{fig:dicontinuous-full}{{3.1a}{18}}
\newlabel{sub@fig:dicontinuous-full}{{a}{18}}
\newlabel{fig:discontinuous-closeup}{{3.1b}{18}}
\newlabel{sub@fig:discontinuous-closeup}{{b}{18}}
\@writefile{lof}{\contentsline {figure}{\numberline {3.1}{\ignorespaces Discontinuous grid}}{18}}
\newlabel{fig:dicontinuous}{{3.1}{18}}
\newlabel{eq:polynomial}{{3.1}{18}}
\@writefile{lof}{\contentsline {figure}{\numberline {3.2}{\ignorespaces Grid line extrapolation method}}{19}}
\newlabel{fig:poly-extrapolation}{{3.2}{19}}
\newlabel{eq:a1}{{3.2}{19}}
\newlabel{eq:polycoeffs}{{3.3}{19}}
\@writefile{lof}{\contentsline {figure}{\numberline {3.3}{\ignorespaces Method for generating individual grid lines}}{19}}
\newlabel{fig:grid-line}{{3.3}{19}}
\@writefile{lof}{\contentsline {figure}{\numberline {3.4}{\ignorespaces Grid with smooth grid lines}}{20}}
\newlabel{fig:grid-curved}{{3.4}{20}}
\@writefile{lof}{\contentsline {figure}{\numberline {3.5}{\ignorespaces Arbitrary grid layout}}{20}}
\newlabel{fig:grid-arbitrary}{{3.5}{20}}
\citation{lund1998}
\citation{spalart1988}
\citation{sagaut2004}
\citation{lund1998}
\citation{klein2003}
\citation{veloudis2007}
\citation{xie2008}
\citation{kim2011}
\@writefile{toc}{\contentsline {section}{\numberline {3.2}Turbulent Inflow Generation}{21}}
\newlabel{sec:inflow}{{3.2}{21}}
\@writefile{toc}{\contentsline {subsection}{\numberline {3.2.1}Introduction}{21}}
\newlabel{sec:inflow-intro}{{3.2.1}{21}}
\newlabel{eq:lund}{{3.4}{21}}
\newlabel{eq:amatrix}{{3.5}{21}}
\newlabel{eq:Rstress}{{3.6}{21}}
\citation{lund1998}
\citation{kim2011}
\citation{sandham1991}
\citation{li2003}
\citation{touber2010}
\@writefile{toc}{\contentsline {subsection}{\numberline {3.2.2}Mean Profile Generation}{22}}
\newlabel{sec:mean-inflow}{{3.2.2}{22}}
\newlabel{eq:van-driest}{{3.7}{22}}
\newlabel{eq:vd-dstar}{{3.8}{22}}
\newlabel{eq:reynolds-number}{{3.9}{22}}
\newlabel{eq:xi}{{3.11}{23}}
\newlabel{eq:y-vd-plus}{{3.12}{23}}
\newlabel{eq:y-vd}{{3.13}{23}}
\newlabel{eq:bl-thickness}{{3.14}{23}}
\newlabel{eq:alpha}{{3.15}{23}}
\newlabel{velocity-vd}{{3.16}{23}}
\newlabel{eq:velocity-vd-aux}{{3.17}{23}}
\newlabel{eq:eta}{{3.18}{23}}
\newlabel{eq:vd-displacement-thickness}{{3.19}{23}}
\newlabel{eq:T-aw}{{3.20}{23}}
\newlabel{eq:crocco}{{3.21}{23}}
\citation{schlatter2010}
\citation{schlatter-dns}
\newlabel{eq:crocco-coef}{{3.22}{24}}
\newlabel{eq:u-vd-plus}{{3.23}{24}}
\newlabel{eq:vd-integral-solve}{{3.24}{24}}
\newlabel{eq:vd-bl-edge}{{3.25}{24}}
\newlabel{eq:u-physical}{{3.26}{24}}
\newlabel{eq:fuck-this}{{3.27}{24}}
\newlabel{eq:y-physical}{{3.28}{24}}
\@writefile{toc}{\contentsline {subsection}{\numberline {3.2.3}Fluctuating Profile Generation}{24}}
\newlabel{sec:fluc-inflow}{{3.2.3}{24}}
\citation{touber2010}
\newlabel{schlatter-Re}{{3.29}{25}}
\newlabel{schlatter-Re-comp}{{3.30}{25}}
\newlabel{eq:amatrix2}{{3.31}{25}}
\newlabel{eq:kim-method-phi}{{3.32}{25}}
\newlabel{eq:kim-method-psi}{{3.33}{25}}
\newlabel{eq:kim-method-ustar}{{3.34}{25}}
\newlabel{eq:r-rms}{{3.35}{25}}
\citation{touber2010}
\citation{martin2007}
\citation{schlatter2010}
\newlabel{my-label}{{\caption@xref {my-label}{ on input line 403}}{26}}
\@writefile{lot}{\contentsline {table}{\numberline {3.1}{\ignorespaces Choice of integral length scales for each velocity component in each direction.\relax }}{26}}
\newlabel{tab:integral-len}{{3.1}{26}}
\newlabel{eq:SRA1}{{3.36}{26}}
\newlabel{eq:SRA2}{{3.37}{26}}
\@writefile{toc}{\contentsline {subsection}{\numberline {3.2.4}Initial Testing}{26}}
\newlabel{sec:initial-testing}{{3.2.4}{26}}
\newlabel{eq:y-strech}{{3.38}{26}}
\newlabel{eq:stretch-eta}{{3.39}{26}}
\@writefile{lot}{\contentsline {table}{\numberline {3.2}{\ignorespaces List of spatial and temporal parameters used in the initial testing.\relax }}{26}}
\newlabel{tab:testing-params}{{3.2}{26}}
\citation{schlatter2010}
\citation{schlatter2010}
\@writefile{lof}{\contentsline {figure}{\numberline {3.6}{\ignorespaces Validation of mean profile generation}}{27}}
\newlabel{fig:u-plus-mean}{{3.6}{27}}
\newlabel{eq:correlation-zeros}{{3.40}{27}}
\newlabel{fig:urms}{{3.7a}{28}}
\newlabel{sub@fig:urms}{{a}{28}}
\newlabel{fig:vrms}{{3.7b}{28}}
\newlabel{sub@fig:vrms}{{b}{28}}
\newlabel{fig:wrms}{{3.7c}{28}}
\newlabel{sub@fig:wrms}{{c}{28}}
\newlabel{fig:uvrms}{{3.7d}{28}}
\newlabel{sub@fig:uvrms}{{d}{28}}
\@writefile{lof}{\contentsline {figure}{\numberline {3.7}{\ignorespaces Verification of RMS data from the correlation method}}{28}}
\newlabel{fig:rms-good}{{3.7}{28}}
\newlabel{fig:urms-bad}{{3.8a}{29}}
\newlabel{sub@fig:urms-bad}{{a}{29}}
\newlabel{fig:vrms-bad}{{3.8b}{29}}
\newlabel{sub@fig:vrms-bad}{{b}{29}}
\newlabel{fig:wrms-bad}{{3.8c}{29}}
\newlabel{sub@fig:wrms-bad}{{c}{29}}
\newlabel{fig:uvrms-bad}{{3.8d}{29}}
\newlabel{sub@fig:uvrms-bad}{{d}{29}}
\@writefile{lof}{\contentsline {figure}{\numberline {3.8}{\ignorespaces Non-periodic RMS results of the correlation method}}{29}}
\newlabel{fig:rms-bad}{{3.8}{29}}
\newlabel{fig:inflow-test-span-u}{{3.9a}{30}}
\newlabel{sub@fig:inflow-test-span-u}{{a}{30}}
\newlabel{fig:inflow-test-span-v}{{3.9b}{30}}
\newlabel{sub@fig:inflow-test-span-v}{{b}{30}}
\newlabel{fig:inflow-test-span-w}{{3.9c}{30}}
\newlabel{sub@fig:inflow-test-span-w}{{c}{30}}
\@writefile{lof}{\contentsline {figure}{\numberline {3.9}{\ignorespaces Fluctuation contours in the $y-z$ plane}}{30}}
\newlabel{fig:inflow-test-span}{{3.9}{30}}
\newlabel{fig:inflow-test-stream-u}{{3.10a}{31}}
\newlabel{sub@fig:inflow-test-stream-u}{{a}{31}}
\newlabel{fig:inflow-test-stream-v}{{3.10b}{31}}
\newlabel{sub@fig:inflow-test-stream-v}{{b}{31}}
\newlabel{fig:inflow-test-stream-w}{{3.10c}{31}}
\newlabel{sub@fig:inflow-test-stream-w}{{c}{31}}
\@writefile{lof}{\contentsline {figure}{\numberline {3.10}{\ignorespaces Fluctuation contours in the $y-t$ plane}}{31}}
\newlabel{fig:inflow-test-stream}{{3.10}{31}}
\@setckpt{current}{
\setcounter{page}{32}
\setcounter{equation}{40}
\setcounter{enumi}{0}
\setcounter{enumii}{0}
\setcounter{enumiii}{0}
\setcounter{enumiv}{0}
\setcounter{footnote}{0}
\setcounter{mpfootnote}{0}
\setcounter{part}{0}
\setcounter{chapter}{3}
\setcounter{section}{2}
\setcounter{subsection}{4}
\setcounter{subsubsection}{0}
\setcounter{paragraph}{0}
\setcounter{subparagraph}{0}
\setcounter{figure}{10}
\setcounter{table}{2}
\setcounter{parentequation}{0}
\setcounter{ContinuedFloat}{0}
\setcounter{subfigure}{3}
\setcounter{subtable}{0}
\setcounter{float@type}{4}
\setcounter{NAT@ctr}{0}
\setcounter{@pps}{0}
\setcounter{@ppsavesec}{0}
\setcounter{@ppsaveapp}{0}
\setcounter{cp@cntr}{0}
}
