\relax 
\@writefile{toc}{\contentsline {chapter}{\numberline {4}Current \& Future Work}{32}}
\@writefile{lof}{\addvspace {10\p@ }}
\@writefile{lot}{\addvspace {10\p@ }}
\newlabel{chap:future}{{4}{32}}
\@writefile{toc}{\contentsline {section}{\numberline {4.1}Current Work}{32}}
\newlabel{sec:current}{{4.1}{32}}
\citation{wang2015}
\newlabel{fig:random-issues-inflow}{{4.1a}{33}}
\newlabel{sub@fig:random-issues-inflow}{{a}{33}}
\newlabel{fig:random-issues-mid}{{4.1b}{33}}
\newlabel{sub@fig:random-issues-mid}{{b}{33}}
\newlabel{fig:random-issues-end}{{4.1c}{33}}
\newlabel{sub@fig:random-issues-end}{{c}{33}}
\@writefile{lof}{\contentsline {figure}{\numberline {4.1}{\ignorespaces Density contour plots showing the flow structures resulting from the PRNG}}{33}}
\newlabel{fig:random-issues}{{4.1}{33}}
\@writefile{toc}{\contentsline {section}{\numberline {4.2}Future Work}{33}}
\newlabel{sec:future}{{4.2}{33}}
\citation{wang2015}
\@writefile{lof}{\contentsline {figure}{\numberline {4.2}{\ignorespaces Research plan for the next 9 months}}{35}}
\newlabel{fig:gantt}{{4.2}{35}}
\@setckpt{future}{
\setcounter{page}{36}
\setcounter{equation}{0}
\setcounter{enumi}{0}
\setcounter{enumii}{0}
\setcounter{enumiii}{0}
\setcounter{enumiv}{0}
\setcounter{footnote}{0}
\setcounter{mpfootnote}{0}
\setcounter{part}{0}
\setcounter{chapter}{4}
\setcounter{section}{2}
\setcounter{subsection}{0}
\setcounter{subsubsection}{0}
\setcounter{paragraph}{0}
\setcounter{subparagraph}{0}
\setcounter{figure}{2}
\setcounter{table}{0}
\setcounter{parentequation}{0}
\setcounter{ContinuedFloat}{0}
\setcounter{subfigure}{0}
\setcounter{subtable}{0}
\setcounter{float@type}{4}
\setcounter{NAT@ctr}{0}
\setcounter{@pps}{0}
\setcounter{@ppsavesec}{0}
\setcounter{@ppsaveapp}{0}
\setcounter{cp@cntr}{0}
}
