\relax 
\citation{fievet2017}
\citation{grossman2018}
\@writefile{toc}{\contentsline {chapter}{\numberline {5}Future Work}{58}}
\@writefile{lof}{\addvspace {10\p@ }}
\@writefile{lot}{\addvspace {10\p@ }}
\newlabel{chap:future}{{5}{58}}
\@writefile{toc}{\contentsline {section}{\numberline {5.1}SBLI cases}{58}}
\newlabel{sec:future_sbli}{{5.1}{58}}
\@writefile{lot}{\contentsline {table}{\numberline {5.1}{\ignorespaces Summary of proposed SBLI cases}}{58}}
\newlabel{tab:proposed_cases}{{5.1}{58}}
\@writefile{toc}{\contentsline {section}{\numberline {5.2}Constant Area Duct Cases}{58}}
\newlabel{sec:future_duct}{{5.2}{58}}
\@writefile{toc}{\contentsline {section}{\numberline {5.3}Miscelaneous}{59}}
\newlabel{sec:future_duct}{{5.3}{59}}
\citation{fievet2017}
\newlabel{fig:gantt}{{\caption@xref {fig:gantt}{ on input line 113}}{60}}
\@setckpt{futurework}{
\setcounter{page}{61}
\setcounter{equation}{0}
\setcounter{enumi}{4}
\setcounter{enumii}{0}
\setcounter{enumiii}{0}
\setcounter{enumiv}{0}
\setcounter{footnote}{0}
\setcounter{mpfootnote}{0}
\setcounter{part}{0}
\setcounter{chapter}{5}
\setcounter{section}{3}
\setcounter{subsection}{0}
\setcounter{subsubsection}{0}
\setcounter{paragraph}{0}
\setcounter{subparagraph}{0}
\setcounter{figure}{0}
\setcounter{table}{1}
\setcounter{parentequation}{0}
\setcounter{ContinuedFloat}{0}
\setcounter{subfigure}{0}
\setcounter{subtable}{0}
\setcounter{float@type}{4}
\setcounter{NAT@ctr}{0}
\setcounter{@pps}{0}
\setcounter{@ppsavesec}{0}
\setcounter{@ppsaveapp}{0}
\setcounter{cp@cntr}{0}
}
