\relax 
\citation{dolling2001}
\citation{piponniau2009}
\citation{concorde-photo}
\citation{tornado-photo}
\citation{concorde-photo}
\citation{tornado-photo}
\@writefile{toc}{\contentsline {chapter}{\numberline {1}Introduction}{1}}
\@writefile{lof}{\addvspace {10\p@ }}
\@writefile{lot}{\addvspace {10\p@ }}
\newlabel{chap:intro}{{1}{1}}
\@writefile{toc}{\contentsline {section}{\numberline {1.1}Motivation}{1}}
\newlabel{sec:motivation}{{1.1}{1}}
\providecommand*\caption@xref[2]{\@setref\relax\@undefined{#1}}
\newlabel{fig:concorde}{{\caption@xref {fig:concorde}{ on input line 18}}{1}}
\newlabel{sub@fig:concorde}{{}{1}}
\newlabel{fig:tornado}{{\caption@xref {fig:tornado}{ on input line 24}}{1}}
\newlabel{sub@fig:tornado}{{}{1}}
\@writefile{lof}{\contentsline {figure}{\numberline {1.1}{\ignorespaces Photographs of mixed compression intakes}}{1}}
\newlabel{fig:intakes}{{1.1}{1}}
\@writefile{toc}{\contentsline {section}{\numberline {1.2}Overview and Objectives}{1}}
\newlabel{sec:overview}{{1.2}{1}}
\@setckpt{introduction}{
\setcounter{page}{3}
\setcounter{equation}{0}
\setcounter{enumi}{0}
\setcounter{enumii}{0}
\setcounter{enumiii}{0}
\setcounter{enumiv}{0}
\setcounter{footnote}{0}
\setcounter{mpfootnote}{0}
\setcounter{part}{0}
\setcounter{chapter}{1}
\setcounter{section}{2}
\setcounter{subsection}{0}
\setcounter{subsubsection}{0}
\setcounter{paragraph}{0}
\setcounter{subparagraph}{0}
\setcounter{figure}{1}
\setcounter{table}{0}
\setcounter{parentequation}{0}
\setcounter{ContinuedFloat}{0}
\setcounter{subfigure}{0}
\setcounter{subtable}{0}
\setcounter{float@type}{4}
\setcounter{NAT@ctr}{0}
\setcounter{@pps}{0}
\setcounter{@ppsavesec}{0}
\setcounter{@ppsaveapp}{0}
\setcounter{cp@cntr}{0}
}
