\relax 
\citation{ferri1940}
\citation{liepmann1946}
\citation{ackeret1947}
\citation{fage1947}
\citation{bardsley1951}
\citation{barry1951}
\citation{liepmann1951}
\citation{chapman1958}
\citation{kistler1964}
\citation{reda1973}
\citation{bharath2007}
\citation{humble2009}
\citation{uk-wind-tunnel}
\citation{top-500}
\@writefile{toc}{\contentsline {chapter}{\numberline {2}Scientific Background}{3}}
\@writefile{lof}{\addvspace {10\p@ }}
\@writefile{lot}{\addvspace {10\p@ }}
\newlabel{chap:lit}{{2}{3}}
\@writefile{toc}{\contentsline {section}{\numberline {2.1}Historical Context}{3}}
\newlabel{sec:historical}{{2.1}{3}}
\citation{horstman1979}
\citation{dolling2001}
\citation{babinsky2011}
\citation{grossman2018}
\citation{grossman2018}
\@writefile{toc}{\contentsline {section}{\numberline {2.2}Shock wave/Boundary layer Interactions}{4}}
\newlabel{sec:SBLI}{{2.2}{4}}
\@writefile{lof}{\contentsline {figure}{\numberline {2.1}{\ignorespaces Diagram of the main SBLI types}}{4}}
\newlabel{fig:SBLI-types}{{2.1}{4}}
\citation{bruce2011}
\citation{ben-dor2001}
\citation{bruce2011}
\citation{ben-dor2001}
\citation{bruce2011}
\citation{babinsky2011}
\@writefile{toc}{\contentsline {subsection}{\numberline {2.2.1}Normal SBLI}{5}}
\newlabel{sec:normal-SBLI}{{2.2.1}{5}}
\@writefile{lof}{\contentsline {figure}{\numberline {2.2}{\ignorespaces Photograph and sketch of a normal SBLI}}{5}}
\newlabel{fig:normal-shock-diagram}{{2.2}{5}}
\@writefile{toc}{\contentsline {subsection}{\numberline {2.2.2}Oblique SBLI}{5}}
\newlabel{sec:oblique-SBLI}{{2.2.2}{5}}
\citation{grossman2018}
\citation{matheis2015}
\citation{grossman2018}
\citation{matheis2015}
\citation{reda1973}
\citation{humble2009}
\citation{bookey2005}
\citation{bruce2011}
\citation{titchener2011,eagle2014}
\@writefile{lof}{\contentsline {figure}{\numberline {2.3}{\ignorespaces Photograph and sketch of an oblique SBLI}}{6}}
\newlabel{fig:oblique-shock-diagram}{{2.3}{6}}
\citation{settles1985,inger1987}
\citation{alvi1992}
\citation{lu1993}
\citation{chapman1958}
\citation{wang2015}
\citation{wang2015}
\citation{wang2015}
\@writefile{toc}{\contentsline {section}{\numberline {2.3}Sidewall Influence}{7}}
\newlabel{sec:sidewall}{{2.3}{7}}
\@writefile{toc}{\contentsline {subsection}{\numberline {2.3.1}Swept SBLI}{7}}
\newlabel{sec:swept}{{2.3.1}{7}}
\citation{wang2015}
\citation{wang2015}
\citation{lu1993}
\citation{alvi1992}
\citation{wang2015}
\citation{benek2013,wang2015,babinsky2013}
\citation{burton2012,bruce2011}
\citation{babinsky2013}
\citation{babinsky2013}
\@writefile{lof}{\contentsline {figure}{\numberline {2.4}{\ignorespaces Time-averaged velocity gradient over a swept SBLI}}{8}}
\newlabel{fig:wang-swept-shock}{{2.4}{8}}
\newlabel{eq:penetration-mach}{{2.1}{8}}
\@writefile{toc}{\contentsline {subsection}{\numberline {2.3.2}Corner Flow}{8}}
\newlabel{sec:corner}{{2.3.2}{8}}
\citation{babinsky2013}
\citation{babinsky2013}
\citation{galbraith2013}
\citation{benek2013}
\citation{galbraith2013}
\citation{babinsky2013}
\citation{benek2013}
\citation{babinsky2013}
\@writefile{lof}{\contentsline {figure}{\numberline {2.5}{\ignorespaces Diagram of SBLI corner flow structure}}{9}}
\newlabel{fig:wang-sidewall}{{2.5}{9}}
\@writefile{lof}{\contentsline {figure}{\numberline {2.6}{\ignorespaces Impact of tunnel aspect ratio on main separation length}}{9}}
\newlabel{fig:babinsky-corner}{{2.6}{9}}
\citation{wang2015}
\citation{matheis2015}
\citation{matheis2015}
\citation{vuillon1995}
\citation{vuillon1995}
\citation{ivanov1995,chpoun1995}
\citation{vuillon1995}
\citation{li1997}
\@writefile{toc}{\contentsline {section}{\numberline {2.4}Shock Strength Influence}{10}}
\newlabel{sec:3d}{{2.4}{10}}
\@writefile{toc}{\contentsline {subsection}{\numberline {2.4.1}Mach Reflections and Irregular SBLI}{10}}
\newlabel{sec:mach-ref}{{2.4.1}{10}}
\newlabel{eq:oblique-pressure}{{2.2}{10}}
\newlabel{eq:beta-theta}{{2.3}{10}}
\citation{vuillon1995}
\citation{vuillon1995}
\citation{matheis2015,grossman2017}
\@writefile{lof}{\contentsline {figure}{\numberline {2.7}{\ignorespaces Shock polar diagram for various regular reflections and Mach reflections}}{11}}
\newlabel{fig:matheis-shock-polar}{{2.7}{11}}
\@writefile{lof}{\contentsline {figure}{\numberline {2.8}{\ignorespaces Sketch of an inviscid Mach reflection}}{11}}
\newlabel{fig:mach-ref-inviscid}{{2.8}{11}}
\citation{matheis2015}
\citation{matheis2015}
\citation{matheis2015}
\citation{matheis2015}
\citation{grossman2018}
\citation{grossman2018}
\citation{delery2011}
\@writefile{lof}{\contentsline {figure}{\numberline {2.9}{\ignorespaces Geometry limitations for stable Mach reflections}}{12}}
\newlabel{fig:mach-ref-limits}{{2.9}{12}}
\citation{matheis2015}
\citation{bermejo2014}
\citation{campo2015}
\citation{grossman2018}
\citation{matheis2015}
\newlabel{fig:matheis-mr}{{2.10a}{13}}
\newlabel{sub@fig:matheis-mr}{{a}{13}}
\newlabel{fig:mach-ref-sketch}{{2.10b}{13}}
\newlabel{sub@fig:mach-ref-sketch}{{b}{13}}
\@writefile{lof}{\contentsline {figure}{\numberline {2.10}{\ignorespaces Simulation results and sketch of irregular SBLIs}}{13}}
\newlabel{fig:mach-refs}{{2.10}{13}}
\citation{touber2009b}
\citation{dupont2008}
\citation{touber2009b}
\citation{touber2009b}
\citation{souverein2013}
\citation{souverein2013}
\citation{souverein2013}
\@writefile{toc}{\contentsline {subsection}{\numberline {2.4.2}Effect on Flow Separation}{14}}
\newlabel{sec:separation}{{2.4.2}{14}}
\@writefile{lof}{\contentsline {figure}{\numberline {2.11}{\ignorespaces Variation of separation length with normalised pressure change}}{14}}
\newlabel{fig:touber-sep}{{2.11}{14}}
\citation{wang2015,grossman2017}
\citation{fievet2017}
\newlabel{fig:souverein-scaling}{{2.12a}{15}}
\newlabel{sub@fig:souverein-scaling}{{a}{15}}
\newlabel{fig:souverein-criterion}{{2.12b}{15}}
\newlabel{sub@fig:souverein-criterion}{{b}{15}}
\@writefile{lof}{\contentsline {figure}{\numberline {2.12}{\ignorespaces Prediction of interaction length from shock strength}}{15}}
\newlabel{fig:interaction-length}{{2.12}{15}}
\@writefile{toc}{\contentsline {section}{\numberline {2.5}Shock Trains}{15}}
\newlabel{sec:shock-trains}{{2.5}{15}}
\citation{weiss2010}
\citation{weiss2010}
\citation{weiss2010}
\citation{carroll1990}
\citation{carroll1990}
\citation{carroll1990,carroll1988}
\citation{fievet2017}
\citation{carroll1990}
\citation{fievet2017}
\citation{fievet2017}
\@writefile{lof}{\contentsline {figure}{\numberline {2.13}{\ignorespaces Illustration of a shock train system}}{16}}
\newlabel{fig:shocktrain}{{2.13}{16}}
\@writefile{lof}{\contentsline {figure}{\numberline {2.14}{\ignorespaces Effect of increased confinement on shock train behaviour}}{16}}
\newlabel{fig:shock-train-confinement}{{2.14}{16}}
\citation{cox2001}
\citation{morgan2014}
\citation{gnani2018b}
\@writefile{toc}{\contentsline {section}{\numberline {2.6}Summary}{17}}
\newlabel{sec:lit_summary}{{2.6}{17}}
\@setckpt{literature}{
\setcounter{page}{18}
\setcounter{equation}{5}
\setcounter{enumi}{0}
\setcounter{enumii}{0}
\setcounter{enumiii}{0}
\setcounter{enumiv}{0}
\setcounter{footnote}{0}
\setcounter{mpfootnote}{0}
\setcounter{part}{0}
\setcounter{chapter}{2}
\setcounter{section}{6}
\setcounter{subsection}{0}
\setcounter{subsubsection}{0}
\setcounter{paragraph}{0}
\setcounter{subparagraph}{0}
\setcounter{figure}{14}
\setcounter{table}{0}
\setcounter{parentequation}{0}
\setcounter{ContinuedFloat}{0}
\setcounter{subfigure}{0}
\setcounter{subtable}{0}
\setcounter{float@type}{4}
\setcounter{NAT@ctr}{0}
\setcounter{@pps}{0}
\setcounter{@ppsavesec}{0}
\setcounter{@ppsaveapp}{0}
\setcounter{cp@cntr}{0}
}
