\relax 
\providecommand \oddpage@label [2]{}
\select@language{english}
\@writefile{toc}{\select@language{english}}
\@writefile{lof}{\select@language{english}}
\@writefile{lot}{\select@language{english}}
\@writefile{toc}{\contentsline {chapter}{Abstract}{i}}
\@writefile{toc}{\contentsline {chapter}{Acknowledgements}{iii}}
\@writefile{toc}{\contentsline {chapter}{Declaration of Authorship}{v}}
\@writefile{toc}{\contentsline {chapter}{List of Figures}{ix}}
\@writefile{toc}{\contentsline {chapter}{List of Tables}{x}}
\@writefile{toc}{\contentsline {chapter}{List of Symbols}{xi}}
\newlabel{nomenclature}{{}{xi}}
\@input{introduction.aux}
\@input{literature.aux}
\@input{numerical.aux}
\@input{results.aux}
\@input{futurework.aux}
\bibdata{references}
\bibcite{sympy}{{1}{}{{}}{{}}}
\bibcite{uk-wind-tunnel}{{2}{}{{}}{{}}}
\bibcite{schlatter-dns}{{3}{}{{}}{{}}}
\bibcite{top-500}{{4}{}{{}}{{}}}
\bibcite{ackeret1947}{{5}{}{{}}{{}}}
\bibcite{alvi1992}{{6}{}{{}}{{}}}
\bibcite{babinsky2011}{{7}{}{{}}{{}}}
\bibcite{babinsky2013}{{8}{}{{}}{{}}}
\bibcite{bardsley1951}{{9}{}{{}}{{}}}
\bibcite{barry1951}{{10}{}{{}}{{}}}
\bibcite{ben-dor2001}{{11}{}{{}}{{}}}
\bibcite{benek2013}{{12}{}{{}}{{}}}
\bibcite{bermejo2014}{{13}{}{{}}{{}}}
\bibcite{bookey2005}{{14}{}{{}}{{}}}
\bibcite{borges2008}{{15}{}{{}}{{}}}
\bibcite{bruce2011}{{16}{}{{}}{{}}}
\bibcite{burton2012}{{17}{}{{}}{{}}}
\bibcite{campo2015}{{18}{}{{}}{{}}}
\bibcite{carroll1988}{{19}{}{{}}{{}}}
\bibcite{carroll1990}{{20}{}{{}}{{}}}
\bibcite{castro2011}{{21}{}{{}}{{}}}
\@writefile{toc}{\contentsline {chapter}{References}{61}}
\bibcite{tornado-photo}{{22}{}{{}}{{}}}
\bibcite{chapman1958}{{23}{}{{}}{{}}}
\bibcite{chpoun1995}{{24}{}{{}}{{}}}
\bibcite{cox2001}{{25}{}{{}}{{}}}
\bibcite{delery2011}{{26}{}{{}}{{}}}
\bibcite{dolling2001}{{27}{}{{}}{{}}}
\bibcite{ducros1999}{{28}{}{{}}{{}}}
\bibcite{dupont2008}{{29}{}{{}}{{}}}
\bibcite{eagle2014}{{30}{}{{}}{{}}}
\bibcite{fage1947}{{31}{}{{}}{{}}}
\bibcite{ferri1940}{{32}{}{{}}{{}}}
\bibcite{fievet2017}{{33}{}{{}}{{}}}
\bibcite{fu2016}{{34}{}{{}}{{}}}
\bibcite{fu2018}{{35}{}{{}}{{}}}
\bibcite{galbraith2013}{{36}{}{{}}{{}}}
\bibcite{bharath2007}{{37}{}{{}}{{}}}
\bibcite{gnani2018b}{{38}{}{{}}{{}}}
\bibcite{grossman2017}{{39}{}{{}}{{}}}
\bibcite{grossman2018}{{40}{}{{}}{{}}}
\bibcite{horstman1979}{{41}{}{{}}{{}}}
\bibcite{humble2009}{{42}{}{{}}{{}}}
\bibcite{inger1987}{{43}{}{{}}{{}}}
\bibcite{ivanov1995}{{44}{}{{}}{{}}}
\bibcite{jacobs2017}{{45}{}{{}}{{}}}
\bibcite{kim2011}{{46}{}{{}}{{}}}
\bibcite{kistler1964}{{47}{}{{}}{{}}}
\bibcite{klein2003}{{48}{}{{}}{{}}}
\bibcite{li1997}{{49}{}{{}}{{}}}
\bibcite{li2003}{{50}{}{{}}{{}}}
\bibcite{liepmann1946}{{51}{}{{}}{{}}}
\bibcite{liepmann1951}{{52}{}{{}}{{}}}
\bibcite{lu1993}{{53}{}{{}}{{}}}
\bibcite{lund1998}{{54}{}{{}}{{}}}
\bibcite{lusher2018}{{55}{}{{}}{{}}}
\bibcite{matheis2015}{{56}{}{{}}{{}}}
\bibcite{morgan2014}{{57}{}{{}}{{}}}
\bibcite{piponniau2009}{{58}{}{{}}{{}}}
\bibcite{pirozzoli2011}{{59}{}{{}}{{}}}
\bibcite{reda1973}{{60}{}{{}}{{}}}
\bibcite{reguly2014}{{61}{}{{}}{{}}}
\bibcite{sagaut2004}{{62}{}{{}}{{}}}
\bibcite{sandham1991}{{63}{}{{}}{{}}}
\bibcite{schlatter2010}{{64}{}{{}}{{}}}
\bibcite{settles1985}{{65}{}{{}}{{}}}
\bibcite{concorde-photo}{{66}{}{{}}{{}}}
\bibcite{shu1998}{{67}{}{{}}{{}}}
\bibcite{souverein2013}{{68}{}{{}}{{}}}
\bibcite{spalart1988}{{69}{}{{}}{{}}}
\bibcite{titchener2011}{{70}{}{{}}{{}}}
\bibcite{touber2010}{{71}{}{{}}{{}}}
\bibcite{touber2009b}{{72}{}{{}}{{}}}
\bibcite{veloudis2007}{{73}{}{{}}{{}}}
\bibcite{vuillon1995}{{74}{}{{}}{{}}}
\bibcite{wang2015}{{75}{}{{}}{{}}}
\bibcite{weiss2010}{{76}{}{{}}{{}}}
\bibcite{wenzel2018}{{77}{}{{}}{{}}}
\bibcite{white2006}{{78}{}{{}}{{}}}
\bibcite{xie2008}{{79}{}{{}}{{}}}
\bibstyle{abbrv}
\providecommand\NAT@force@numbers{}\NAT@force@numbers
