\relax 
\citation{jacobs2017}
\citation{reguly2014}
\citation{jacobs2017}
\citation{jacobs2017}
\citation{sympy}
\@writefile{toc}{\contentsline {chapter}{\numberline {3}Computational Setup}{18}}
\@writefile{lof}{\addvspace {10\p@ }}
\@writefile{lot}{\addvspace {10\p@ }}
\newlabel{chapter:numerical}{{3}{18}}
\@writefile{toc}{\contentsline {section}{\numberline {3.1}OpenSBLI}{18}}
\newlabel{sec:opensbli}{{3.1}{18}}
\@writefile{lof}{\contentsline {figure}{\numberline {3.1}{\ignorespaces Design overview of the OpenSBLI system}}{18}}
\newlabel{fig:opensbli-design}{{3.1}{18}}
\citation{jacobs2017}
\citation{lusher2018}
\@writefile{toc}{\contentsline {section}{\numberline {3.2}Governing Equations}{19}}
\newlabel{sec:governing_eq}{{3.2}{19}}
\newlabel{eq:ns-mass}{{3.1}{19}}
\newlabel{eq:ns-momentum}{{3.2}{19}}
\newlabel{eq:ns-energy}{{3.3}{19}}
\newlabel{eq:ns-pressure}{{3.4}{19}}
\newlabel{eq:ns-stress}{{3.5}{19}}
\newlabel{eq:ns-heatflux}{{3.6}{19}}
\newlabel{eq:sutherlands}{{3.7}{19}}
\citation{borges2008}
\citation{fu2016}
\citation{fu2016}
\citation{fu2016}
\newlabel{eq:suthconstant}{{3.8}{20}}
\newlabel{eq:gaslaw}{{3.9}{20}}
\@writefile{toc}{\contentsline {section}{\numberline {3.3}Numerical Schemes}{20}}
\newlabel{sec:schemes}{{3.3}{20}}
\@writefile{toc}{\contentsline {subsection}{\numberline {3.3.1}Shock Capturing}{20}}
\newlabel{sec:eno}{{3.3.1}{20}}
\newlabel{eq:hyperbolic}{{3.10}{20}}
\newlabel{eq:flux}{{3.11}{20}}
\newlabel{eq:fluxsum}{{3.12}{20}}
\citation{shu1998}
\citation{shu1998}
\citation{castro2011}
\@writefile{lof}{\contentsline {figure}{\numberline {3.2}{\ignorespaces Sketch of candidate stencils for ENO schemes}}{21}}
\newlabel{fig:stencils}{{3.2}{21}}
\newlabel{eq:fluxinterpolation}{{3.13}{21}}
\newlabel{eq:wenoweight}{{3.14}{21}}
\newlabel{eq:wenoalpha}{{3.15}{21}}
\newlabel{eq:globalsmoothness}{{3.17}{21}}
\newlabel{eq:tenoweight}{{3.18}{21}}
\citation{fu2016}
\citation{ducros1999}
\citation{fu2018}
\newlabel{eq:tenodelta}{{3.19}{22}}
\newlabel{eq:tenochi}{{3.20}{22}}
\newlabel{eq:tenogamma}{{3.21}{22}}
\@writefile{toc}{\contentsline {subsection}{\numberline {3.3.2}Adaptive Schemes}{22}}
\newlabel{sec:adaptive}{{3.3.2}{22}}
\newlabel{eq:ducros}{{3.22}{22}}
\@writefile{toc}{\contentsline {subsection}{\numberline {3.3.3}Temporal Discretisation}{23}}
\newlabel{sec:temporal}{{3.3.3}{23}}
\newlabel{eq:rk-hyperbolic}{{3.29}{23}}
\newlabel{eq:rk-pde}{{3.30}{23}}
\newlabel{eq:rk-initial}{{3.31}{23}}
\newlabel{eq:rk-core}{{3.32}{23}}
\newlabel{eq:rk-coefs}{{3.33}{23}}
\@writefile{toc}{\contentsline {section}{\numberline {3.4}Computational Domain}{24}}
\newlabel{sec:domain}{{3.4}{24}}
\@writefile{toc}{\contentsline {subsection}{\numberline {3.4.1}Grid}{24}}
\newlabel{sec:grid}{{3.4.1}{24}}
\newlabel{eq:stretch-tanh}{{3.34}{24}}
\newlabel{eq:stretch-sinh}{{3.35}{24}}
\newlabel{fig:grid-flat-plate}{{3.3a}{25}}
\newlabel{sub@fig:grid-flat-plate}{{a}{25}}
\newlabel{fig:grid-duct}{{3.3b}{25}}
\newlabel{sub@fig:grid-duct}{{b}{25}}
\newlabel{fig:grid-shock}{{3.3c}{25}}
\newlabel{sub@fig:grid-shock}{{c}{25}}
\newlabel{fig:grid-shock-sidewall}{{3.3d}{25}}
\newlabel{sub@fig:grid-shock-sidewall}{{d}{25}}
\@writefile{lof}{\contentsline {figure}{\numberline {3.3}{\ignorespaces Visualisation of numerical domains}}{25}}
\newlabel{fig:domains}{{3.3}{25}}
\@writefile{toc}{\contentsline {subsection}{\numberline {3.4.2}Boundary Conditions}{25}}
\newlabel{sec:bcs}{{3.4.2}{25}}
\newlabel{eq:Twall}{{3.36}{25}}
\citation{lund1998}
\citation{spalart1988}
\citation{sagaut2004}
\newlabel{eq:Ewall}{{3.37}{26}}
\newlabel{eq:outflowpressure}{{3.38}{26}}
\newlabel{eq:outflowenergy}{{3.39}{26}}
\@writefile{lot}{\contentsline {table}{\numberline {3.1}{\ignorespaces Summary of boundary conditions}}{26}}
\newlabel{tab:BCs}{{3.1}{26}}
\@writefile{toc}{\contentsline {section}{\numberline {3.5}Turbulence Generation}{26}}
\newlabel{sec:inflow}{{3.5}{26}}
\@writefile{toc}{\contentsline {subsection}{\numberline {3.5.1}Overview}{26}}
\newlabel{sec:inflow-intro}{{3.5.1}{26}}
\citation{lund1998}
\citation{klein2003}
\citation{veloudis2007}
\citation{xie2008}
\citation{kim2011}
\citation{lund1998}
\citation{kim2011}
\newlabel{eq:lund}{{3.40}{27}}
\newlabel{eq:amatrix}{{3.41}{27}}
\newlabel{eq:Rstress}{{3.42}{27}}
\citation{sandham1991}
\citation{li2003}
\citation{touber2010}
\@writefile{toc}{\contentsline {subsection}{\numberline {3.5.2}Mean Profile Generation}{28}}
\newlabel{sec:mean-inflow}{{3.5.2}{28}}
\newlabel{eq:van-driest}{{3.43}{28}}
\newlabel{eq:vd-dstar}{{3.44}{28}}
\newlabel{eq:reynolds-number}{{3.45}{28}}
\newlabel{eq:uplusrange}{{3.46}{28}}
\newlabel{eq:xi}{{3.47}{28}}
\newlabel{eq:y-vd-plus}{{3.48}{28}}
\newlabel{eq:y-vd}{{3.49}{28}}
\newlabel{eq:bl-thickness}{{3.50}{28}}
\newlabel{eq:alpha}{{3.51}{29}}
\newlabel{velocity-vd}{{3.52}{29}}
\newlabel{eq:velocity-vd-aux}{{3.53}{29}}
\newlabel{eq:eta}{{3.54}{29}}
\newlabel{eq:vd-displacement-thickness}{{3.55}{29}}
\newlabel{eq:T-aw}{{3.56}{29}}
\newlabel{eq:crocco}{{3.57}{29}}
\newlabel{eq:crocco-coef}{{3.58}{29}}
\newlabel{eq:u-vd-plus}{{3.59}{29}}
\newlabel{eq:vd-integral-solve}{{3.60}{29}}
\citation{touber2010}
\citation{touber2010}
\citation{schlatter2010}
\citation{schlatter-dns}
\newlabel{eq:vd-bl-edge}{{3.61}{30}}
\newlabel{eq:u-physical}{{3.62}{30}}
\newlabel{eq-density}{{3.63}{30}}
\newlabel{eq:fuck-this}{{3.64}{30}}
\newlabel{eq:y-physical}{{3.65}{30}}
\@writefile{toc}{\contentsline {subsection}{\numberline {3.5.3}Fluctuating Profile Generation}{30}}
\newlabel{sec:fluc-inflow}{{3.5.3}{30}}
\@writefile{toc}{\contentsline {subsubsection}{Original Method}{30}}
\newlabel{sec:inflow-original}{{3.5.3}{30}}
\newlabel{schlatter-Re}{{3.66}{30}}
\newlabel{schlatter-Re-comp}{{3.67}{30}}
\citation{kim2011}
\citation{touber2010}
\newlabel{eq:amatrix2}{{3.68}{31}}
\newlabel{eq:kim-method-phi}{{3.69}{31}}
\newlabel{eq:kim-method-psi}{{3.70}{31}}
\newlabel{eq:kim-method-ustar}{{3.71}{31}}
\newlabel{eq:r-rms}{{3.72}{31}}
\newlabel{my-label}{{\caption@xref {my-label}{ on input line 715}}{31}}
\@writefile{lot}{\contentsline {table}{\numberline {3.2}{\ignorespaces Integral length scale matrix}}{31}}
\newlabel{tab:integral-len}{{3.2}{31}}
\@writefile{toc}{\contentsline {subsubsection}{Modifications for Current Project}{32}}
\@writefile{lof}{\contentsline {figure}{\numberline {3.4}{\ignorespaces Visualisation of the correlation method applied to a sequential code}}{32}}
\newlabel{fig:kim-method-seq}{{3.4}{32}}
\newlabel{eq:periodic-method-phi}{{3.73}{32}}
\newlabel{eq:periodic-method-psi}{{3.74}{32}}
\newlabel{eq:parallel-method-phi}{{3.75}{32}}
\newlabel{eq:parallel-method-psi}{{3.76}{32}}
\@writefile{lof}{\contentsline {figure}{\numberline {3.5}{\ignorespaces Visualisation of the correlation method applied to a parallel code}}{33}}
\newlabel{fig:kim-method-parallel}{{3.5}{33}}
\@writefile{toc}{\contentsline {subsection}{\numberline {3.5.4}Adaptation for Sidewalls}{33}}
\newlabel{sec:inflow-corner}{{3.5.4}{33}}
\newlabel{eq:amatrix_y}{{3.77}{33}}
\newlabel{eq:amatrix_z}{{3.78}{33}}
\newlabel{blending-umean}{{3.79}{34}}
\newlabel{eq:blending-A}{{3.80}{34}}
\newlabel{eq:blending-b}{{3.81}{34}}
\newlabel{eq:blending-D1}{{3.82}{34}}
\newlabel{eq:blending-D1}{{3.83}{34}}
\newlabel{fig:umean_bottom}{{\caption@xref {fig:umean_bottom}{ on input line 855}}{34}}
\newlabel{sub@fig:umean_bottom}{{}{34}}
\newlabel{fig:umean_corner}{{\caption@xref {fig:umean_corner}{ on input line 862}}{34}}
\newlabel{sub@fig:umean_corner}{{a}{34}}
\@writefile{lof}{\contentsline {figure}{\numberline {3.6}{\ignorespaces Blending of mean velocity within the corner}}{34}}
\newlabel{fig:blend-umean}{{3.6}{34}}
\newlabel{fig:a11_bottom}{{\caption@xref {fig:a11_bottom}{ on input line 874}}{35}}
\newlabel{sub@fig:a11_bottom}{{}{35}}
\newlabel{fig:a11_corner}{{\caption@xref {fig:a11_corner}{ on input line 881}}{35}}
\newlabel{sub@fig:a11_corner}{{a}{35}}
\@writefile{lof}{\contentsline {figure}{\numberline {3.7}{\ignorespaces Blending of fluctuation amplitude within the corner}}{35}}
\newlabel{fig:blend-a11}{{3.7}{35}}
\@setckpt{numerical}{
\setcounter{page}{36}
\setcounter{equation}{83}
\setcounter{enumi}{4}
\setcounter{enumii}{0}
\setcounter{enumiii}{0}
\setcounter{enumiv}{0}
\setcounter{footnote}{0}
\setcounter{mpfootnote}{0}
\setcounter{part}{0}
\setcounter{chapter}{3}
\setcounter{section}{5}
\setcounter{subsection}{4}
\setcounter{subsubsection}{0}
\setcounter{paragraph}{0}
\setcounter{subparagraph}{0}
\setcounter{figure}{7}
\setcounter{table}{2}
\setcounter{parentequation}{0}
\setcounter{ContinuedFloat}{0}
\setcounter{subfigure}{2}
\setcounter{subtable}{0}
\setcounter{float@type}{4}
\setcounter{NAT@ctr}{0}
\setcounter{@pps}{0}
\setcounter{@ppsavesec}{0}
\setcounter{@ppsaveapp}{0}
\setcounter{cp@cntr}{0}
}
