\relax 
\citation{schlatter2010}
\citation{schlatter2010}
\citation{schlatter2010}
\citation{schlatter2010}
\citation{schlatter2010}
\citation{touber2010,wang2015}
\citation{pirozzoli2011}
\citation{wenzel2018}
\@writefile{toc}{\contentsline {chapter}{\numberline {4}Results}{36}}
\@writefile{lof}{\addvspace {10\p@ }}
\@writefile{lot}{\addvspace {10\p@ }}
\newlabel{chap:results}{{4}{36}}
\@writefile{toc}{\contentsline {section}{\numberline {4.1}Turbulent Boundary Layer}{36}}
\newlabel{sec:tbl}{{4.1}{36}}
\@writefile{toc}{\contentsline {subsection}{\numberline {4.1.1}Validation}{36}}
\newlabel{sec:tbl_validation}{{4.1.1}{36}}
\@writefile{lot}{\contentsline {table}{\numberline {4.1}{\ignorespaces Summary of domain size and grid resolutions for the TBL cases}}{36}}
\newlabel{tab:tbl_params}{{4.1}{36}}
\newlabel{fig:uvd_baseline}{{4.1a}{36}}
\newlabel{sub@fig:uvd_baseline}{{a}{36}}
\newlabel{fig:rms_baseline}{{4.1b}{36}}
\newlabel{sub@fig:rms_baseline}{{b}{36}}
\@writefile{lof}{\contentsline {figure}{\numberline {4.1}{\ignorespaces Examination of turbulent boundary layer properties}}{36}}
\newlabel{fig:bl_baseline}{{4.1}{36}}
\citation{white2006}
\citation{white2006}
\citation{touber2010}
\citation{wenzel2018}
\citation{white2006}
\newlabel{fig:cf_baseline}{{4.2a}{37}}
\newlabel{sub@fig:cf_baseline}{{a}{37}}
\newlabel{fig:H_baseline}{{4.2b}{37}}
\newlabel{sub@fig:H_baseline}{{b}{37}}
\@writefile{lof}{\contentsline {figure}{\numberline {4.2}{\ignorespaces Streamwise distributions of skin friction and shape factor}}{37}}
\newlabel{fig:streamwise_baseline}{{4.2}{37}}
\citation{white2006}
\newlabel{fig:rho_mid}{{4.3a}{38}}
\newlabel{sub@fig:rho_mid}{{a}{38}}
\newlabel{fig:u_bottomwall}{{4.3b}{39}}
\newlabel{sub@fig:u_bottomwall}{{b}{39}}
\newlabel{fig:u_yz0}{{4.3c}{39}}
\newlabel{sub@fig:u_yz0}{{c}{39}}
\newlabel{fig:u_yz290}{{4.3d}{39}}
\newlabel{sub@fig:u_yz290}{{d}{39}}
\@writefile{lof}{\contentsline {figure}{\numberline {4.3}{\ignorespaces Instantaneous contours from the Wide TBL case}}{39}}
\newlabel{fig:tbl_contours}{{4.3}{39}}
\@writefile{toc}{\contentsline {subsection}{\numberline {4.1.2}Numerical Schemes}{40}}
\newlabel{sec:tbl_schemes}{{4.1.2}{40}}
\newlabel{fig:uvd_scheme}{{4.4a}{40}}
\newlabel{sub@fig:uvd_scheme}{{a}{40}}
\newlabel{fig:rms_scheme}{{4.4b}{40}}
\newlabel{sub@fig:rms_scheme}{{b}{40}}
\@writefile{lof}{\contentsline {figure}{\numberline {4.4}{\ignorespaces Effect of numerical scheme on boundary layer properties}}{40}}
\newlabel{fig:bl_scheme}{{4.4}{40}}
\@writefile{toc}{\contentsline {subsection}{\numberline {4.1.3}Grid Dependence}{40}}
\newlabel{sec:tbl_grid}{{4.1.3}{40}}
\citation{schlatter2010}
\citation{wenzel2018,white2006}
\newlabel{fig:cf_scheme}{{4.5a}{41}}
\newlabel{sub@fig:cf_scheme}{{a}{41}}
\newlabel{fig:theta_scheme}{{4.5b}{41}}
\newlabel{sub@fig:theta_scheme}{{b}{41}}
\@writefile{lof}{\contentsline {figure}{\numberline {4.5}{\ignorespaces Effect of numerical scheme on streamwise flow properties}}{41}}
\newlabel{fig:streamwise_scheme}{{4.5}{41}}
\newlabel{fig:uvd_span}{{4.6a}{41}}
\newlabel{sub@fig:uvd_span}{{a}{41}}
\newlabel{fig:rms_span}{{4.6b}{41}}
\newlabel{sub@fig:rms_span}{{b}{41}}
\@writefile{lof}{\contentsline {figure}{\numberline {4.6}{\ignorespaces Effect of domain width on boundary layer properties}}{41}}
\newlabel{fig:bl_span}{{4.6}{41}}
\newlabel{fig:uvd_grid}{{4.7a}{42}}
\newlabel{sub@fig:uvd_grid}{{a}{42}}
\newlabel{fig:rms_grid}{{4.7b}{42}}
\newlabel{sub@fig:rms_grid}{{b}{42}}
\@writefile{lof}{\contentsline {figure}{\numberline {4.7}{\ignorespaces Effect of grid resolution on boundary layer properties}}{42}}
\newlabel{fig:bl_grid}{{4.7}{42}}
\newlabel{fig:cf_grid}{{4.8a}{42}}
\newlabel{sub@fig:cf_grid}{{a}{42}}
\newlabel{fig:theta_grid}{{4.8b}{42}}
\newlabel{sub@fig:theta_grid}{{b}{42}}
\@writefile{lof}{\contentsline {figure}{\numberline {4.8}{\ignorespaces Effect of grid resolution on streamwise flow properties}}{42}}
\newlabel{fig:streamwise_grid}{{4.8}{42}}
\@writefile{toc}{\contentsline {section}{\numberline {4.2}Constant Area Duct}{43}}
\newlabel{sec:duct}{{4.2}{43}}
\@writefile{lot}{\contentsline {table}{\numberline {4.2}{\ignorespaces Summary of flow and grid parameters for the constant area duct cases}}{43}}
\newlabel{tab:CAD}{{4.2}{43}}
\@writefile{lof}{\contentsline {figure}{\numberline {4.9}{\ignorespaces Instantaneous streamwise density contours of flow in constant area ducts}}{43}}
\newlabel{fig:inst_contours_xy}{{4.9}{43}}
\@writefile{lof}{\contentsline {figure}{\numberline {4.10}{\ignorespaces Time-averaged density contours in constant area ducts}}{44}}
\newlabel{fig:stat_contours_xy}{{4.10}{44}}
\@writefile{lof}{\contentsline {figure}{\numberline {4.11}{\ignorespaces Instantaneous flow cross-sections of the CAD4 case}}{44}}
\newlabel{fig:cad4_contours_yz}{{4.11}{44}}
\@writefile{lof}{\contentsline {figure}{\numberline {4.12}{\ignorespaces Instantaneous flow cross-sections of the CAD6 case}}{45}}
\newlabel{fig:cad6_contours_yz}{{4.12}{45}}
\newlabel{fig:pressure_cad4}{{4.13a}{45}}
\newlabel{sub@fig:pressure_cad4}{{a}{45}}
\newlabel{fig:pressure_cad6}{{4.13b}{45}}
\newlabel{sub@fig:pressure_cad6}{{b}{45}}
\@writefile{lof}{\contentsline {figure}{\numberline {4.13}{\ignorespaces Pressure distributions within constant area ducts}}{45}}
\newlabel{fig:isolator_pressure}{{4.13}{45}}
\@writefile{lof}{\contentsline {figure}{\numberline {4.14}{\ignorespaces Development of corner vortices along the CAD4 duct}}{46}}
\newlabel{fig:cornerflow}{{4.14}{46}}
\@writefile{toc}{\contentsline {section}{\numberline {4.3}SBLI Exploratory Studies}{47}}
\newlabel{sec:xsbli}{{4.3}{47}}
\@writefile{lot}{\contentsline {table}{\numberline {4.3}{\ignorespaces Geometrical parameters for each of the exploratory SBLI cases}}{47}}
\newlabel{tab:xsbli}{{4.3}{47}}
\@writefile{toc}{\contentsline {subsection}{\numberline {4.3.1}Span Periodic Cases}{47}}
\newlabel{sec:xsbli-weak}{{4.3.1}{47}}
\citation{wang2015}
\citation{wang2015}
\@writefile{lof}{\contentsline {figure}{\numberline {4.15}{\ignorespaces Contours of Mach number for PX05 and PX09}}{48}}
\newlabel{fig:xsbli_weak_M}{{4.15}{48}}
\@writefile{lof}{\contentsline {figure}{\numberline {4.16}{\ignorespaces Contours of density gradient for PX05 and PX09}}{48}}
\newlabel{fig:xsbli_weak_drdx}{{4.16}{48}}
\@writefile{toc}{\contentsline {subsection}{\numberline {4.3.2}Sidewall Case}{48}}
\newlabel{sec:xsbli-sidewall}{{4.3.2}{48}}
\@writefile{lof}{\contentsline {figure}{\numberline {4.17}{\ignorespaces Contours of skin friction for PX05 and PX09}}{49}}
\newlabel{fig:xsbli_weak_cf}{{4.17}{49}}
\@writefile{lof}{\contentsline {figure}{\numberline {4.18}{\ignorespaces Contours of streamwise velocity for SWX05}}{49}}
\newlabel{fig:xsbli_sidewall_u}{{4.18}{49}}
\citation{wang2015}
\citation{wang2015}
\citation{babinsky2013}
\citation{galbraith2013}
\citation{wang2015}
\@writefile{lof}{\contentsline {figure}{\numberline {4.19}{\ignorespaces Contours of density gradient for SWX05}}{50}}
\newlabel{fig:xsbli_sidewall_drdx}{{4.19}{50}}
\newlabel{eq:mp}{{4.5}{50}}
\citation{bermejo2014,campo2015}
\citation{matheis2015}
\citation{grossman2018}
\citation{bermejo2014,campo2015}
\citation{matheis2015}
\citation{grossman2018}
\@writefile{lof}{\contentsline {figure}{\numberline {4.20}{\ignorespaces Density gradient cross-sections for SWX05}}{51}}
\newlabel{fig:xsbli_sidewall_sections}{{4.20}{51}}
\@writefile{toc}{\contentsline {subsection}{\numberline {4.3.3}Strong Interaction Cases}{51}}
\newlabel{sec:xsbli-strong}{{4.3.3}{51}}
\@writefile{lof}{\contentsline {figure}{\numberline {4.21}{\ignorespaces Contours of skin friction along the walls for SWX05}}{52}}
\newlabel{fig:xsbli_sidewall_streams}{{4.21}{52}}
\@writefile{lof}{\contentsline {figure}{\numberline {4.22}{\ignorespaces Conditions determining Mach reflection}}{52}}
\newlabel{fig:xsbli_machref}{{4.22}{52}}
\@writefile{lof}{\contentsline {figure}{\numberline {4.23}{\ignorespaces Development of the interaction region for the PX22 case}}{53}}
\newlabel{fig:xsbli_strong_drdx}{{4.23}{53}}
\citation{wang2015}
\citation{wang2015}
\citation{wang2015}
\citation{wang2015}
\citation{wang2015}
\citation{wang2015}
\@writefile{lof}{\contentsline {figure}{\numberline {4.24}{\ignorespaces Span-averaged contours of streamwise velocity for PX22}}{54}}
\newlabel{fig:xsbli_strong_streams}{{4.24}{54}}
\@writefile{toc}{\contentsline {section}{\numberline {4.4}SBLI Validation}{54}}
\newlabel{sec:sbli-validation}{{4.4}{54}}
\@writefile{lot}{\contentsline {table}{\numberline {4.4}{\ignorespaces Comparison of key flow variables for the SBLI validation study}}{54}}
\newlabel{tab:wang_flow}{{4.4}{54}}
\@writefile{lot}{\contentsline {table}{\numberline {4.5}{\ignorespaces Comparison of grid parameters for the SBLI validation study}}{54}}
\newlabel{tab:wang_geometry}{{4.5}{54}}
\citation{wang2015}
\citation{wang2015}
\citation{wang2015}
\citation{wang2015}
\citation{wang2015}
\citation{wang2015}
\citation{wang2015}
\citation{wang2015}
\citation{wang2015}
\newlabel{fig:wang_u}{{4.25a}{55}}
\newlabel{sub@fig:wang_u}{{a}{55}}
\newlabel{fig:teno_u}{{4.25b}{55}}
\newlabel{sub@fig:teno_u}{{b}{55}}
\newlabel{fig:weno_u}{{4.25c}{55}}
\newlabel{sub@fig:weno_u}{{c}{55}}
\@writefile{lof}{\contentsline {figure}{\numberline {4.25}{\ignorespaces Contours of streamwise velocity compared to reference data}}{55}}
\newlabel{fig:sbli_u}{{4.25}{55}}
\newlabel{fig:wang_drho}{{4.26a}{56}}
\newlabel{sub@fig:wang_drho}{{a}{56}}
\newlabel{fig:teno_drho}{{4.26b}{56}}
\newlabel{sub@fig:teno_drho}{{b}{56}}
\newlabel{fig:weno_drho}{{4.26c}{56}}
\newlabel{sub@fig:weno_drho}{{c}{56}}
\@writefile{lof}{\contentsline {figure}{\numberline {4.26}{\ignorespaces Contours of total density gradient compared to reference data}}{56}}
\newlabel{fig:sbli_drho}{{4.26}{56}}
\citation{wang2015}
\citation{wang2015}
\citation{wang2015}
\newlabel{fig:cf_sp09}{{4.27a}{57}}
\newlabel{sub@fig:cf_sp09}{{a}{57}}
\newlabel{fig:pw_sp09}{{4.27b}{57}}
\newlabel{sub@fig:pw_sp09}{{b}{57}}
\@writefile{lof}{\contentsline {figure}{\numberline {4.27}{\ignorespaces Streamwise flow properties compared to reference data}}{57}}
\newlabel{fig:lineplots_sp09}{{4.27}{57}}
\@setckpt{results}{
\setcounter{page}{58}
\setcounter{equation}{5}
\setcounter{enumi}{4}
\setcounter{enumii}{0}
\setcounter{enumiii}{0}
\setcounter{enumiv}{0}
\setcounter{footnote}{0}
\setcounter{mpfootnote}{0}
\setcounter{part}{0}
\setcounter{chapter}{4}
\setcounter{section}{4}
\setcounter{subsection}{0}
\setcounter{subsubsection}{0}
\setcounter{paragraph}{0}
\setcounter{subparagraph}{0}
\setcounter{figure}{27}
\setcounter{table}{5}
\setcounter{parentequation}{0}
\setcounter{ContinuedFloat}{0}
\setcounter{subfigure}{2}
\setcounter{subtable}{0}
\setcounter{float@type}{4}
\setcounter{NAT@ctr}{0}
\setcounter{@pps}{0}
\setcounter{@ppsavesec}{0}
\setcounter{@ppsaveapp}{0}
\setcounter{cp@cntr}{0}
}
